…
``` r
top10 <- conserved_markers %>% 
  mutate(avg_fc = (hCO_avg_log2FC + hCO_b_avg_log2FC) /2) %>% 
  group_by(cluster_id) %>% 
  top_n(n = 10, 
        wt = avg_fc)
```

Visualize top 10 markers per cluster

``` r
top10
```

    ## # A tibble: 110 × 15
    ## # Groups:   cluster_id [11]
    ##    cluster_id gene  hCO_b_p_…¹ hCO_b…² hCO_b…³ hCO_b…⁴ hCO_b…⁵ hCO_p_val hCO_a…⁶
    ##    <chr>      <chr>      <dbl>   <dbl>   <dbl>   <dbl>   <dbl>     <dbl>   <dbl>
    ##  1 CN         SCG2           0    2.28   0.639   0.222       0 1.06e-253    1.31
    ##  2 CN         GAP43          0    1.90   0.895   0.382       0 0            1.57
    ##  3 CN         NSG2           0    2.35   0.886   0.112       0 0            1.80
    ##  4 CN         DCX            0    2.70   0.99    0.31        0 0            2.05
    ##  5 CN         PKIA           0    2.35   0.927   0.298       0 0            1.98
    ##  6 CN         STMN2          0    3.18   0.995   0.212       0 0            2.53
    ##  7 CN         INA            0    2.31   0.905   0.13        0 0            1.87
    ##  8 CN         RTN1           0    2.21   0.941   0.386       0 0            1.64
    ##  9 CN         MAPT           0    2.18   0.901   0.243       0 0            1.58
    ## 10 CN         SYT4           0    2.25   0.753   0.14        0 0            1.71
    ## # … with 100 more rows, 6 more variables: hCO_pct.1 <dbl>, hCO_pct.2 <dbl>,
    ## #   hCO_p_val_adj <dbl>, max_pval <dbl>, minimump_p_val <dbl>, avg_fc <dbl>,
    ## #   and abbreviated variable names ¹​hCO_b_p_val, ²​hCO_b_avg_log2FC,
    ## #   ³​hCO_b_pct.1, ⁴​hCO_b_pct.2, ⁵​hCO_b_p_val_adj, ⁶​hCO_avg_log2FC
…
