…
Extract top 10 markers per cluster

``` r
top10 <- conserved_markers %>% 
  mutate(avg_fc = (mhCO_avg_log2FC + mhCO_b_avg_log2FC) /2) %>% 
  group_by(cluster_id) %>% 
  top_n(n = 10, 
        wt = avg_fc)
```

Visualize top 10 markers per cluster

``` r
top10
#> # A tibble: 90 × 15
#> # Groups:   cluster_id [9]
#>    cluster_id gene  mhCO_b_p…¹ mhCO_…² mhCO_…³ mhCO_…⁴ mhCO_…⁵ mhCO_p_…⁶ mhCO_…⁷
#>    <chr>      <chr>      <dbl>   <dbl>   <dbl>   <dbl>   <dbl>     <dbl>   <dbl>
#>  1 CN         NRXN1          0    1.94   0.914   0.227       0 0            1.72
#>  2 CN         SCG2           0    2.13   0.59    0.188       0 7.42e-215    1.67
#>  3 CN         NSG2           0    2.07   0.832   0.139       0 0            2.06
#>  4 CN         DCX            0    2.40   0.979   0.327       0 0            2.55
#>  5 CN         PKIA           0    2.11   0.891   0.314       0 0            2.02
#>  6 CN         STMN2          0    2.77   0.991   0.267       0 0            2.83
#>  7 CN         INA            0    1.95   0.859   0.174       0 0            2.03
#>  8 CN         RTN1           0    2.09   0.923   0.397       0 0            2.05
#>  9 CN         MAPT           0    2.07   0.855   0.242       0 0            1.79
#> 10 CN         SYT4           0    2.22   0.721   0.151       0 0            2.02
#> # … with 80 more rows, 6 more variables: mhCO_pct.1 <dbl>, mhCO_pct.2 <dbl>,
#> #   mhCO_p_val_adj <dbl>, max_pval <dbl>, minimump_p_val <dbl>, avg_fc <dbl>,
#> #   and abbreviated variable names ¹​mhCO_b_p_val, ²​mhCO_b_avg_log2FC,
#> #   ³​mhCO_b_pct.1, ⁴​mhCO_b_pct.2, ⁵​mhCO_b_p_val_adj, ⁶​mhCO_p_val,
#> #   ⁷​mhCO_avg_log2FC
```
…
